sim&tb/img_ram_sim_result.vcd
$comment
Copyright (C) 2020  Intel Corporation. All rights reserved.
Your use of Intel Corporation's design tools, logic functions 
and other software and tools, and any partner logic 
functions, and any output files from any of the foregoing 
(including device programming or simulation files), and any 
associated documentation or information are expressly subject 
to the terms and conditions of the Intel Program License 
Subscription Agreement, the Intel Quartus Prime License Agreement,
the Intel FPGA IP License Agreement, or other applicable license
agreement, including, without limitation, that your use is for
the sole purpose of programming logic devices manufactured by
Intel and sold by Intel or its authorized distributors.  Please
refer to the applicable agreement for further details, at
https://fpgasoftware.intel.com/eula.
$end

$date 
  01/16/2021 22:20:39 
$end
$version 
 QUARTUS_VCD_EXPORT 1.0 
$end
$timescale
  1 ps
$end
$scope module inst $end
$var reg 1 ! add_wr[11] $end
$var reg 1 " add_wr[10] $end
$var reg 1 # add_wr[9] $end
$var reg 1 $ add_wr[8] $end
$var reg 1 % add_wr[7] $end
$var reg 1 & add_wr[6] $end
$var reg 1 ' add_wr[5] $end
$var reg 1 ( add_wr[4] $end
$var reg 1 ) add_wr[3] $end
$var reg 1 * add_wr[2] $end
$var reg 1 + add_wr[1] $end
$var reg 1 , add_wr[0] $end
$var reg 1 - color_num[7] $end
$var reg 1 . color_num[6] $end
$var reg 1 / color_num[5] $end
$var reg 1 0 color_num[4] $end
$var reg 1 1 color_num[3] $end
$var reg 1 2 color_num[2] $end
$var reg 1 3 color_num[1] $end
$var reg 1 4 color_num[0] $end
$var reg 1 5 img_data[23] $end
$var reg 1 6 img_data[22] $end
$var reg 1 7 img_data[21] $end
$var reg 1 8 img_data[20] $end
$var reg 1 9 img_data[19] $end
$var reg 1 : img_data[18] $end
$var reg 1 ; img_data[17] $end
$var reg 1 < img_data[16] $end
$var reg 1 = img_data[15] $end
$var reg 1 > img_data[14] $end
$var reg 1 ? img_data[13] $end
$var reg 1 @ img_data[12] $end
$var reg 1 A img_data[11] $end
$var reg 1 B img_data[10] $end
$var reg 1 C img_data[9] $end
$var reg 1 D img_data[8] $end
$var reg 1 E img_data[7] $end
$var reg 1 F img_data[6] $end
$var reg 1 G img_data[5] $end
$var reg 1 H img_data[4] $end
$var reg 1 I img_data[3] $end
$var reg 1 J img_data[2] $end
$var reg 1 K img_data[1] $end
$var reg 1 L img_data[0] $end
$var reg 1 M x_point[7] $end
$var reg 1 N x_point[6] $end
$var reg 1 O x_point[5] $end
$var reg 1 P x_point[4] $end
$var reg 1 Q x_point[3] $end
$var reg 1 R x_point[2] $end
$var reg 1 S x_point[1] $end
$var reg 1 T x_point[0] $end
$var reg 1 U y_point[7] $end
$var reg 1 V y_point[6] $end
$var reg 1 W y_point[5] $end
$var reg 1 X y_point[4] $end
$var reg 1 Y y_point[3] $end
$var reg 1 Z y_point[2] $end
$var reg 1 [ y_point[1] $end
$var reg 1 \ y_point[0] $end
$var reg 1 ] wr_en $end
$upscope $end
$scope module inst7 $end
$var reg 1 ^ add_rd[11] $end
$var reg 1 _ add_rd[10] $end
$var reg 1 ` add_rd[9] $end
$var reg 1 a add_rd[8] $end
$var reg 1 b add_rd[7] $end
$var reg 1 c add_rd[6] $end
$var reg 1 d add_rd[5] $end
$var reg 1 e add_rd[4] $end
$var reg 1 f add_rd[3] $end
$var reg 1 g add_rd[2] $end
$var reg 1 h add_rd[1] $end
$var reg 1 i add_rd[0] $end
$upscope $end
$var reg 1 j clk_sys $end
$var reg 1 k q[23] $end
$var reg 1 l q[22] $end
$var reg 1 m q[21] $end
$var reg 1 n q[20] $end
$var reg 1 o q[19] $end
$var reg 1 p q[18] $end
$var reg 1 q q[17] $end
$var reg 1 r q[16] $end
$var reg 1 s q[15] $end
$var reg 1 t q[14] $end
$var reg 1 u q[13] $end
$var reg 1 v q[12] $end
$var reg 1 w q[11] $end
$var reg 1 x q[10] $end
$var reg 1 y q[9] $end
$var reg 1 z q[8] $end
$var reg 1 { q[7] $end
$var reg 1 | q[6] $end
$var reg 1 } q[5] $end
$var reg 1 ~ q[4] $end
$var reg 1 !! q[3] $end
$var reg 1 !" q[2] $end
$var reg 1 !# q[1] $end
$var reg 1 !$ q[0] $end
$enddefinitions $end
#0
$dumpvars
X!
X"
X#
X$
X%
X&
X'
X(
X)
X*
X+
X,
X-
X.
X/
X0
X1
X2
X3
X4
X5
X6
X7
X8
X9
X:
X;
X<
X=
X>
X?
X@
XA
XB
XC
XD
XE
XF
XG
XH
XI
XJ
XK
XL
XM
XN
XO
XP
XQ
XR
XS
XT
XU
XV
XW
XX
XY
XZ
X[
X\
X]
X^
X_
X`
Xa
Xb
Xc
Xd
Xe
Xf
Xg
Xh
Xi
0j
Xk
Xl
Xm
Xn
Xo
Xp
Xq
Xr
Xs
Xt
Xu
Xv
Xw
Xx
Xy
Xz
X{
X|
X}
X~
X!!
X!"
X!#
X!$
$end
#10000
$comment Sample -256 (Start) $end
0!
1"
1#
1$
1%
1&
0'
0(
0)
0*
0+
0,
0-
0.
1/
00
01
02
03
04
05
16
17
18
19
0:
0;
1<
0=
1>
0?
1@
0A
1B
0C
1D
0E
1F
0G
0H
1I
0J
0K
0L
0M
0N
0O
0P
0Q
0R
0S
1T
0U
0V
1W
0X
0Y
0Z
0[
0\
1]
0^
0_
0`
1a
0b
1c
1d
1e
0f
1g
0h
1i
1j
0k
0l
0m
0n
0o
0p
0q
0r
0s
0t
0u
0v
0w
0x
0y
0z
0{
0|
0}
0~
0!!
0!"
0!#
0!$
#20000
0j
#30000
1h
0i
1j
#40000
0j
#50000
1i
1j
#60000
0j
#70000
1f
0g
0h
0i
1j
#80000
0j
#90000
1i
1j
#100000
0j
#110000
1h
0i
1j
#120000
0j
#130000
1i
1j
#140000
0j
#150000
1g
0h
0i
1j
#160000
0j
#170000
1i
1j
#180000
0j
#190000
1h
0i
1j
#200000
0j
#210000
1i
1j
#220000
0j
#230000
1b
0c
0d
0e
0f
0g
0h
0i
1j
#240000
0j
#250000
1i
1j
1k
1l
1m
1n
1o
1p
1q
1r
1s
1t
1u
1v
1w
1x
1y
1z
1{
1|
1}
1~
1!!
1!"
1!#
1!$
#260000
0j
#270000
1h
0i
1j
0k
0p
0q
0s
0u
0w
0y
0{
0}
0~
0!"
0!#
0!$
#280000
0j
#290000
1i
1j
0l
0m
0n
0o
0r
0t
0v
0x
0z
0|
0!!
#300000
0j
#310000
1g
0h
0i
1j
#320000
0j
#330000
1i
1j
#340000
0j
#350000
1h
0i
1j
#360000
0j
#370000
1i
1j
#380000
0j
#390000
1f
0g
0h
0i
1j
#400000
0j
#410000
1i
1j
#420000
0j
#430000
1h
0i
1j
#440000
0j
#450000
1i
1j
#460000
0j
#470000
1g
0h
0i
1j
#480000
0j
#490000
1i
1j
#500000
0j
#510000
1h
0i
1j
#520000
0j
#530000
1i
1j
#540000
0j
#550000
1e
0f
0g
0h
0i
1j
#560000
0j
#570000
1i
1j
#580000
0j
#590000
1h
0i
1j
#600000
0j
#610000
1i
1j
#620000
0j
#630000
1g
0h
0i
1j
#640000
0j
#650000
1i
1j
#660000
0j
#670000
1h
0i
1j
#680000
0j
#690000
1i
1j
#700000
0j
#710000
1f
0g
0h
0i
1j
#720000
0j
#730000
1i
1j
#740000
0j
#750000
1h
0i
1j
#760000
0j
#770000
1i
1j
#780000
0j
#790000
1g
0h
0i
1j
#800000
0j
#810000
1i
1j
#820000
0j
#830000
1h
0i
1j
#840000
0j
#850000
1i
1j
#860000
0j
#870000
1d
0e
0f
0g
0h
0i
1j
#880000
0j
#890000
1i
1j
#900000
0j
#910000
1h
0i
1j
#920000
0j
#930000
1i
1j
#940000
0j
#950000
1g
0h
0i
1j
#960000
0j
#970000
1i
1j
#980000
0j
#990000
1h
0i
1j
#1000000
0j
#1010000
1i
1j
#1020000
0j
#1030000
1f
0g
0h
0i
1j
#1040000
0j
#1050000
1i
1j
#1060000
0j
#1070000
1h
0i
1j
#1080000
0j
#1090000
1i
1j
#1100000
0j
#1110000
1g
0h
0i
1j
#1120000
0j
#1130000
1i
1j
#1140000
0j
#1150000
1h
0i
1j
#1160000
0j
#1170000
1i
1j
#1180000
0j
#1190000
1e
0f
0g
0h
0i
1j
#1200000
0j
#1210000
1i
1j
#1220000
0j
#1230000
1h
0i
1j
#1240000
0j
#1250000
1i
1j
#1260000
0j
#1270000
1g
0h
0i
1j
#1280000
0j
#1290000
1i
1j
#1300000
0j
#1310000
1h
0i
1j
#1320000
0j
#1330000
1i
1j
#1340000
0j
#1350000
1f
0g
0h
0i
1j
#1360000
0j
#1370000
1i
1j
#1380000
0j
#1390000
1h
0i
1j
#1400000
0j
#1410000
1i
1j
#1420000
0j
#1430000
1g
0h
0i
1j
#1440000
0j
#1450000
1i
1j
#1460000
0j
#1470000
1h
0i
1j
#1480000
0j
#1490000
1i
1j
#1500000
0j
#1510000
1c
0d
0e
0f
0g
0h
0i
1j
#1520000
0j
#1530000
1i
1j
1k
1l
1m
1n
1o
1p
1q
1r
1s
1t
1u
1v
1w
1x
1y
1z
1{
1|
1}
1~
1!!
1!"
1!#
1!$
#1540000
0j
#1550000
1h
0i
1j
0k
0p
0q
0s
0u
0w
0y
0{
0}
0~
0!"
0!#
0!$
#1560000
0j
#1570000
1i
1j
0l
0m
0n
0o
0r
0t
0v
0x
0z
0|
0!!
#1580000
0j
#1590000
1g
0h
0i
1j
#1600000
0j
#1610000
1i
1j
#1620000
0j
#1630000
1h
0i
1j
#1640000
0j
#1650000
1i
1j
#1660000
0j
#1670000
1f
0g
0h
0i
1j
#1680000
0j
#1690000
1i
1j
#1700000
0j
#1710000
1h
0i
1j
#1720000
0j
#1730000
1i
1j
#1740000
0j
#1750000
1g
0h
0i
1j
#1760000
0j
#1770000
1i
1j
#1780000
0j
#1790000
1h
0i
1j
#1800000
0j
#1810000
1i
1j
#1820000
0j
#1830000
1e
0f
0g
0h
0i
1j
#1840000
0j
#1850000
1i
1j
#1860000
0j
#1870000
1h
0i
1j
#1880000
0j
#1890000
1i
1j
#1900000
0j
#1910000
1g
0h
0i
1j
#1920000
0j
#1930000
1i
1j
#1940000
0j
#1950000
1h
0i
1j
#1960000
0j
#1970000
1i
1j
#1980000
0j
#1990000
1f
0g
0h
0i
1j
#2000000
0j
#2010000
1i
1j
#2020000
0j
#2030000
1h
0i
1j
#2040000
0j
#2050000
1i
1j
#2060000
0j
#2070000
1g
0h
0i
1j
#2080000
0j
#2090000
1i
1j
#2100000
0j
#2110000
1h
0i
1j
#2120000
0j
#2130000
1i
1j
#2140000
0j
#2150000
1d
0e
0f
0g
0h
0i
1j
#2160000
0j
#2170000
1i
1j
#2180000
0j
#2190000
1h
0i
1j
#2200000
0j
#2210000
1i
1j
#2220000
0j
#2230000
1g
0h
0i
1j
#2240000
0j
#2250000
1i
1j
#2260000
0j
#2270000
1h
0i
1j
#2280000
0j
#2290000
1i
1j
#2300000
0j
#2310000
1f
0g
0h
0i
1j
#2320000
0j
#2330000
1i
1j
#2340000
0j
#2350000
1h
0i
1j
#2360000
0j
#2370000
1i
1j
#2380000
0j
#2390000
1g
0h
0i
1j
#2400000
0j
#2410000
1i
1j
#2420000
0j
#2430000
1h
0i
1j
#2440000
0j
#2450000
1i
1j
#2460000
0j
#2470000
1e
0f
0g
0h
0i
1j
#2480000
0j
#2490000
1i
1j
#2500000
0j
#2510000
1h
0i
1j
#2520000
0j
#2530000
1i
1j
#2540000
0j
#2550000
1g
0h
0i
1j
#2560000
0j
#2570000
1i
1j
#2580000
0j
#2590000
1h
0i
1j
#2600000
0j
#2610000
1i
1j
#2620000
0j
#2630000
1f
0g
0h
0i
1j
#2640000
0j
#2650000
1i
1j
#2660000
0j
#2670000
1h
0i
1j
#2680000
0j
#2690000
1i
1j
#2700000
0j
#2710000
1g
0h
0i
1j
#2720000
0j
#2730000
1i
1j
#2740000
0j
#2750000
1h
0i
1j
#2760000
0j
#2770000
1i
1j
#2780000
0j
#2790000
1`
0a
0b
0c
0d
0e
0f
0g
0h
0i
1j
#2800000
0j
#2810000
1i
1j
1k
1l
1m
1n
1o
1p
1q
1r
1s
1t
1u
1v
1w
1x
1y
1z
1{
1|
1}
1~
1!!
1!"
1!#
1!$
#2820000
0j
#2830000
1h
0i
1j
0k
0p
0q
0s
0u
0w
0y
0{
0}
0~
0!"
0!#
0!$
#2840000
0j
#2850000
1i
1j
0l
0m
0n
0o
0r
0t
0v
0x
0z
0|
0!!
#2860000
0j
#2870000
1g
0h
0i
1j
#2880000
0j
#2890000
1i
1j
#2900000
0j
#2910000
1h
0i
1j
#2920000
0j
#2930000
1i
1j
#2940000
0j
#2950000
1f
0g
0h
0i
1j
#2960000
0j
#2970000
1i
1j
#2980000
0j
#2990000
1h
0i
1j
#3000000
0j
#3010000
1i
1j
#3020000
0j
#3030000
1g
0h
0i
1j
#3040000
0j
#3050000
1i
1j
#3060000
0j
#3070000
1h
0i
1j
#3080000
0j
#3090000
1i
1j
#3100000
0j
#3110000
1e
0f
0g
0h
0i
1j
#3120000
0j
#3130000
1i
1j
#3140000
0j
#3150000
1h
0i
1j
#3160000
0j
#3170000
1i
1j
#3180000
0j
#3190000
1g
0h
0i
1j
#3200000
0j
#3210000
1i
1j
#3220000
0j
#3230000
1h
0i
1j
#3240000
0j
#3250000
1i
1j
#3260000
0j
#3270000
1f
0g
0h
0i
1j
#3280000
0j
#3290000
1i
1j
#3300000
0j
#3310000
1h
0i
1j
#3320000
0j
#3330000
1i
1j
#3340000
0j
#3350000
1g
0h
0i
1j
#3360000
0j
#3370000
1i
1j
#3380000
0j
#3390000
1h
0i
1j
#3400000
0j
#3410000
1i
1j
#3420000
0j
#3430000
1d
0e
0f
0g
0h
0i
1j
#3440000
0j
#3450000
1i
1j
#3460000
0j
#3470000
1h
0i
1j
#3480000
0j
#3490000
1i
1j
#3500000
0j
#3510000
1g
0h
0i
1j
#3520000
0j
#3530000
1i
1j
#3540000
0j
#3550000
1h
0i
1j
#3560000
0j
#3570000
1i
1j
#3580000
0j
#3590000
1f
0g
0h
0i
1j
#3600000
0j
#3610000
1i
1j
#3620000
0j
#3630000
1h
0i
1j
#3640000
0j
#3650000
1i
1j
#3660000
0j
#3670000
1g
0h
0i
1j
#3680000
0j
#3690000
1i
1j
#3700000
0j
#3710000
1h
0i
1j
#3720000
0j
#3730000
1i
1j
#3740000
0j
#3750000
1e
0f
0g
0h
0i
1j
#3760000
0j
#3770000
1i
1j
#3780000
0j
#3790000
1h
0i
1j
#3800000
0j
#3810000
1i
1j
#3820000
0j
#3830000
1g
0h
0i
1j
#3840000
0j
#3850000
1i
1j
#3860000
0j
#3870000
1h
0i
1j
#3880000
0j
#3890000
1i
1j
#3900000
0j
#3910000
1f
0g
0h
0i
1j
#3920000
0j
#3930000
1i
1j
#3940000
0j
#3950000
1h
0i
1j
#3960000
0j
#3970000
1i
1j
#3980000
0j
#3990000
1g
0h
0i
1j
#4000000
0j
#4010000
1i
1j
#4020000
0j
#4030000
1h
0i
1j
#4040000
0j
#4050000
1i
1j
#4060000
0j
#4070000
1c
0d
0e
0f
0g
0h
0i
1j
#4080000
0j
#4090000
1i
1j
1k
1l
1m
1n
1o
1p
1q
1r
1s
1t
1u
1v
1w
1x
1y
1z
1{
1|
1}
1~
1!!
1!"
1!#
1!$
#4100000
0j
#4110000
1h
0i
1j
0k
0p
0q
0s
0u
0w
0y
0{
0}
0~
0!"
0!#
0!$
#4120000
0j
#4130000
1i
1j
0l
0m
0n
0o
0r
0t
0v
0x
0z
0|
0!!
#4140000
0j
#4150000
1g
0h
0i
1j
#4160000
0j
#4170000
1i
1j
#4180000
0j
#4190000
1h
0i
1j
#4200000
0j
#4210000
1i
1j
#4220000
0j
#4230000
1f
0g
0h
0i
1j
#4240000
0j
#4250000
1i
1j
#4260000
0j
#4270000
1h
0i
1j
#4280000
0j
#4290000
1i
1j
#4300000
0j
#4310000
1g
0h
0i
1j
#4320000
0j
#4330000
1i
1j
#4340000
0j
#4350000
1h
0i
1j
#4360000
0j
#4370000
1i
1j
#4380000
0j
#4390000
1e
0f
0g
0h
0i
1j
#4400000
0j
#4410000
1i
1j
#4420000
0j
#4430000
1h
0i
1j
#4440000
0j
#4450000
1i
1j
#4460000
0j
#4470000
1g
0h
0i
1j
#4480000
0j
#4490000
1i
1j
#4500000
0j
#4510000
1h
0i
1j
#4520000
0j
#4530000
1i
1j
#4540000
0j
#4550000
1f
0g
0h
0i
1j
#4560000
0j
#4570000
1i
1j
#4580000
0j
#4590000
1h
0i
1j
#4600000
0j
#4610000
1i
1j
#4620000
0j
#4630000
1g
0h
0i
1j
#4640000
0j
#4650000
1i
1j
#4660000
0j
#4670000
1h
0i
1j
#4680000
0j
#4690000
1i
1j
#4700000
0j
#4710000
1d
0e
0f
0g
0h
0i
1j
#4720000
0j
#4730000
1i
1j
#4740000
0j
#4750000
1h
0i
1j
#4760000
0j
#4770000
1i
1j
#4780000
0j
#4790000
1g
0h
0i
1j
#4800000
0j
#4810000
1i
1j
#4820000
0j
#4830000
1h
0i
1j
#4840000
0j
#4850000
1i
1j
#4860000
0j
#4870000
1f
0g
0h
0i
1j
#4880000
0j
#4890000
1i
1j
#4900000
0j
#4910000
1h
0i
1j
#4920000
0j
#4930000
1i
1j
#4940000
0j
#4950000
1g
0h
0i
1j
#4960000
0j
#4970000
1i
1j
#4980000
0j
#4990000
1h
0i
1j
#5000000
0j
#5010000
1i
1j
#5020000
0j
#5030000
1e
0f
0g
0h
0i
1j
#5040000
0j
#5050000
1i
1j
#5060000
0j
#5070000
1h
0i
1j
#5080000
0j
#5090000
1i
1j
#5100000
0j
#5110000
1g
0h
0i
1j
#5120000
0j
#5130000
$comment Sample 0 (Trigger) $end
1i
1j
#5140000
0j
#5150000
1h
0i
1j
#5160000
0j
#5170000
1i
1j
#5180000
0j
#5190000
1f
0g
0h
0i
1j
#5200000
0j
#5210000
1i
1j
#5220000
0j
#5230000
1h
0i
1j
#5240000
0j
#5250000
1i
1j
#5260000
0j
#5270000
1g
0h
0i
1j
#5280000
0j
#5290000
1i
1j
#5300000
0j
#5310000
1h
0i
1j
#5320000
0j
#5330000
1i
1j
#5340000
0j
#5350000
1b
0c
0d
0e
0f
0g
0h
0i
1j
#5360000
0j
#5370000
1i
1j
1k
1l
1m
1n
1o
1p
1q
1r
1s
1t
1u
1v
1w
1x
1y
1z
1{
1|
1}
1~
1!!
1!"
1!#
1!$
#5380000
0j
#5390000
1h
0i
1j
0k
0l
0m
0n
0o
0p
0q
0r
0s
0t
0u
0v
0w
0x
0y
0z
0{
0|
0}
0~
0!!
0!"
0!#
0!$
#5400000
0j
#5410000
1i
1j
#5420000
0j
#5430000
1g
0h
0i
1j
#5440000
0j
#5450000
1i
1j
#5460000
0j
#5470000
1h
0i
1j
#5480000
0j
#5490000
1i
1j
#5500000
0j
#5510000
1f
0g
0h
0i
1j
#5520000
0j
#5530000
1i
1j
#5540000
0j
#5550000
1h
0i
1j
#5560000
0j
#5570000
1i
1j
#5580000
0j
#5590000
1g
0h
0i
1j
#5600000
0j
#5610000
1i
1j
#5620000
0j
#5630000
1h
0i
1j
#5640000
0j
#5650000
1i
1j
#5660000
0j
#5670000
1e
0f
0g
0h
0i
1j
#5680000
0j
#5690000
1i
1j
#5700000
0j
#5710000
1h
0i
1j
#5720000
0j
#5730000
1i
1j
#5740000
0j
#5750000
1g
0h
0i
1j
#5760000
0j
#5770000
1i
1j
#5780000
0j
#5790000
1h
0i
1j
#5800000
0j
#5810000
1i
1j
#5820000
0j
#5830000
1f
0g
0h
0i
1j
#5840000
0j
#5850000
1i
1j
#5860000
0j
#5870000
1h
0i
1j
#5880000
0j
#5890000
1i
1j
#5900000
0j
#5910000
1g
0h
0i
1j
#5920000
0j
#5930000
1i
1j
#5940000
0j
#5950000
1h
0i
1j
#5960000
0j
#5970000
1i
1j
#5980000
0j
#5990000
1d
0e
0f
0g
0h
0i
1j
#6000000
0j
#6010000
1i
1j
#6020000
0j
#6030000
1h
0i
1j
#6040000
0j
#6050000
1i
1j
#6060000
0j
#6070000
1g
0h
0i
1j
#6080000
0j
#6090000
1i
1j
#6100000
0j
#6110000
1h
0i
1j
#6120000
0j
#6130000
1i
1j
#6140000
0j
#6150000
1f
0g
0h
0i
1j
#6160000
0j
#6170000
1i
1j
#6180000
0j
#6190000
1h
0i
1j
#6200000
0j
#6210000
1i
1j
#6220000
0j
#6230000
1g
0h
0i
1j
#6240000
0j
#6250000
1i
1j
#6260000
0j
#6270000
1h
0i
1j
#6280000
0j
#6290000
1i
1j
#6300000
0j
#6310000
1e
0f
0g
0h
0i
1j
#6320000
0j
#6330000
1i
1j
#6340000
0j
#6350000
1h
0i
1j
#6360000
0j
#6370000
1i
1j
#6380000
0j
#6390000
1g
0h
0i
1j
#6400000
0j
#6410000
1i
1j
#6420000
0j
#6430000
1h
0i
1j
#6440000
0j
#6450000
1i
1j
#6460000
0j
#6470000
1f
0g
0h
0i
1j
#6480000
0j
#6490000
1i
1j
#6500000
0j
#6510000
1h
0i
1j
#6520000
0j
#6530000
1i
1j
#6540000
0j
#6550000
1g
0h
0i
1j
#6560000
0j
#6570000
1i
1j
#6580000
0j
#6590000
1h
0i
1j
#6600000
0j
#6610000
1i
1j
#6620000
0j
#6630000
1c
0d
0e
0f
0g
0h
0i
1j
#6640000
0j
#6650000
1i
1j
1k
1l
1m
1n
1o
1p
1q
1r
1s
1t
1u
1v
1w
1x
1y
1z
1{
1|
1}
1~
1!!
1!"
1!#
1!$
#6660000
0j
#6670000
1h
0i
1j
0k
0p
0q
0s
0u
0w
0y
0{
0}
0~
0!"
0!#
0!$
#6680000
0j
#6690000
1i
1j
0l
0m
0n
0o
0r
0t
0v
0x
0z
0|
0!!
#6700000
0j
#6710000
1g
0h
0i
1j
#6720000
0j
#6730000
1i
1j
#6740000
0j
#6750000
1h
0i
1j
#6760000
0j
#6770000
1i
1j
#6780000
0j
#6790000
1f
0g
0h
0i
1j
#6800000
0j
#6810000
1i
1j
#6820000
0j
#6830000
1h
0i
1j
#6840000
0j
#6850000
1i
1j
#6860000
0j
#6870000
1g
0h
0i
1j
#6880000
0j
#6890000
1i
1j
#6900000
0j
#6910000
1h
0i
1j
#6920000
0j
#6930000
1i
1j
#6940000
0j
#6950000
1e
0f
0g
0h
0i
1j
#6960000
0j
#6970000
1i
1j
#6980000
0j
#6990000
1h
0i
1j
#7000000
0j
#7010000
1i
1j
#7020000
0j
#7030000
1g
0h
0i
1j
#7040000
0j
#7050000
1i
1j
#7060000
0j
#7070000
1h
0i
1j
#7080000
0j
#7090000
1i
1j
#7100000
0j
#7110000
1f
0g
0h
0i
1j
#7120000
0j
#7130000
1i
1j
#7140000
0j
#7150000
1h
0i
1j
#7160000
0j
#7170000
1i
1j
#7180000
0j
#7190000
1g
0h
0i
1j
#7200000
0j
#7210000
1i
1j
#7220000
0j
#7230000
1h
0i
1j
#7240000
0j
#7250000
1i
1j
#7260000
0j
#7270000
1d
0e
0f
0g
0h
0i
1j
#7280000
0j
#7290000
1i
1j
#7300000
0j
#7310000
1h
0i
1j
#7320000
0j
#7330000
1i
1j
#7340000
0j
#7350000
1g
0h
0i
1j
#7360000
0j
#7370000
1i
1j
#7380000
0j
#7390000
1h
0i
1j
#7400000
0j
#7410000
1i
1j
#7420000
0j
#7430000
1f
0g
0h
0i
1j
#7440000
0j
#7450000
1i
1j
#7460000
0j
#7470000
1h
0i
1j
#7480000
0j
#7490000
1i
1j
#7500000
0j
#7510000
1g
0h
0i
1j
#7520000
0j
#7530000
1i
1j
#7540000
0j
#7550000
1h
0i
1j
#7560000
0j
#7570000
1i
1j
#7580000
0j
#7590000
1e
0f
0g
0h
0i
1j
#7600000
0j
#7610000
1i
1j
#7620000
0j
#7630000
1h
0i
1j
#7640000
0j
#7650000
1i
1j
#7660000
0j
#7670000
1g
0h
0i
1j
#7680000
0j
#7690000
1i
1j
#7700000
0j
#7710000
1h
0i
1j
#7720000
0j
#7730000
1i
1j
#7740000
0j
#7750000
1f
0g
0h
0i
1j
#7760000
0j
#7770000
1i
1j
#7780000
0j
#7790000
1h
0i
1j
#7800000
0j
#7810000
1i
1j
#7820000
0j
#7830000
1g
0h
0i
1j
#7840000
0j
#7850000
1i
1j
#7860000
0j
#7870000
1h
0i
1j
#7880000
0j
#7890000
1i
1j
#7900000
0j
#7910000
1a
0b
0c
0d
0e
0f
0g
0h
0i
1j
#7920000
0j
#7930000
1i
1j
1k
1l
1m
1n
1o
1p
1q
1r
1s
1t
1u
1v
1w
1x
1y
1z
1{
1|
1}
1~
1!!
1!"
1!#
1!$
#7940000
0j
#7950000
1h
0i
1j
0k
0p
0q
0s
0u
0w
0y
0{
0}
0~
0!"
0!#
0!$
#7960000
0j
#7970000
1i
1j
0l
0m
0n
0o
0r
0t
0v
0x
0z
0|
0!!
#7980000
0j
#7990000
1g
0h
0i
1j
#8000000
0j
#8010000
1i
1j
#8020000
0j
#8030000
1h
0i
1j
#8040000
0j
#8050000
1i
1j
#8060000
0j
#8070000
1f
0g
0h
0i
1j
#8080000
0j
#8090000
1i
1j
#8100000
0j
#8110000
1h
0i
1j
#8120000
0j
#8130000
1i
1j
#8140000
0j
#8150000
1g
0h
0i
1j
#8160000
0j
#8170000
1i
1j
#8180000
0j
#8190000
1h
0i
1j
#8200000
0j
#8210000
1i
1j
#8220000
0j
#8230000
1e
0f
0g
0h
0i
1j
#8240000
0j
#8250000
1i
1j
#8260000
0j
#8270000
1h
0i
1j
#8280000
0j
#8290000
1i
1j
#8300000
0j
#8310000
1g
0h
0i
1j
#8320000
0j
#8330000
1i
1j
#8340000
0j
#8350000
1h
0i
1j
#8360000
0j
#8370000
1i
1j
#8380000
0j
#8390000
1f
0g
0h
0i
1j
#8400000
0j
#8410000
1i
1j
#8420000
0j
#8430000
1h
0i
1j
#8440000
0j
#8450000
1i
1j
#8460000
0j
#8470000
1g
0h
0i
1j
#8480000
0j
#8490000
1i
1j
#8500000
0j
#8510000
1h
0i
1j
#8520000
0j
#8530000
1i
1j
#8540000
0j
#8550000
1d
0e
0f
0g
0h
0i
1j
#8560000
0j
#8570000
1i
1j
#8580000
0j
#8590000
1h
0i
1j
#8600000
0j
#8610000
1i
1j
#8620000
0j
#8630000
1g
0h
0i
1j
#8640000
0j
#8650000
1i
1j
#8660000
0j
#8670000
1h
0i
1j
#8680000
0j
#8690000
1i
1j
#8700000
0j
#8710000
1f
0g
0h
0i
1j
#8720000
0j
#8730000
1i
1j
#8740000
0j
#8750000
1h
0i
1j
#8760000
0j
#8770000
1i
1j
#8780000
0j
#8790000
1g
0h
0i
1j
#8800000
0j
#8810000
1i
1j
#8820000
0j
#8830000
1h
0i
1j
#8840000
0j
#8850000
1i
1j
#8860000
0j
#8870000
1e
0f
0g
0h
0i
1j
#8880000
0j
#8890000
1i
1j
#8900000
0j
#8910000
1h
0i
1j
#8920000
0j
#8930000
1i
1j
#8940000
0j
#8950000
1g
0h
0i
1j
#8960000
0j
#8970000
1i
1j
#8980000
0j
#8990000
1h
0i
1j
#9000000
0j
#9010000
1i
1j
#9020000
0j
#9030000
1f
0g
0h
0i
1j
#9040000
0j
#9050000
1i
1j
#9060000
0j
#9070000
1h
0i
1j
#9080000
0j
#9090000
1i
1j
#9100000
0j
#9110000
1g
0h
0i
1j
#9120000
0j
#9130000
1i
1j
#9140000
0j
#9150000
1h
0i
1j
#9160000
0j
#9170000
1i
1j
#9180000
0j
#9190000
1c
0d
0e
0f
0g
0h
0i
1j
#9200000
0j
#9210000
1i
1j
1k
1l
1m
1n
1o
1p
1q
1r
1s
1t
1u
1v
1w
1x
1y
1z
1{
1|
1}
1~
1!!
1!"
1!#
1!$
#9220000
0j
#9230000
1h
0i
1j
0k
0p
0q
0s
0u
0w
0y
0{
0}
0~
0!"
0!#
0!$
#9240000
0j
#9250000
1i
1j
0l
0m
0n
0o
0r
0t
0v
0x
0z
0|
0!!
#9260000
0j
#9270000
1g
0h
0i
1j
#9280000
0j
#9290000
1i
1j
#9300000
0j
#9310000
1h
0i
1j
#9320000
0j
#9330000
1i
1j
#9340000
0j
#9350000
1f
0g
0h
0i
1j
#9360000
0j
#9370000
1i
1j
#9380000
0j
#9390000
1h
0i
1j
#9400000
0j
#9410000
1i
1j
#9420000
0j
#9430000
1g
0h
0i
1j
#9440000
0j
#9450000
1i
1j
#9460000
0j
#9470000
1h
0i
1j
#9480000
0j
#9490000
1i
1j
#9500000
0j
#9510000
1e
0f
0g
0h
0i
1j
#9520000
0j
#9530000
1i
1j
#9540000
0j
#9550000
1h
0i
1j
#9560000
0j
#9570000
1i
1j
#9580000
0j
#9590000
1g
0h
0i
1j
#9600000
0j
#9610000
1i
1j
#9620000
0j
#9630000
1h
0i
1j
#9640000
0j
#9650000
1i
1j
#9660000
0j
#9670000
1f
0g
0h
0i
1j
#9680000
0j
#9690000
1i
1j
#9700000
0j
#9710000
1h
0i
1j
#9720000
0j
#9730000
1i
1j
#9740000
0j
#9750000
1g
0h
0i
1j
#9760000
0j
#9770000
1i
1j
#9780000
0j
#9790000
1h
0i
1j
#9800000
0j
#9810000
1i
1j
#9820000
0j
#9830000
1d
0e
0f
0g
0h
0i
1j
#9840000
0j
#9850000
1i
1j
#9860000
0j
#9870000
1h
0i
1j
#9880000
0j
#9890000
1i
1j
#9900000
0j
#9910000
1g
0h
0i
1j
#9920000
0j
#9930000
1i
1j
#9940000
0j
#9950000
1h
0i
1j
#9960000
0j
#9970000
1i
1j
#9980000
0j
#9990000
1f
0g
0h
0i
1j
#10000000
0j
#10010000
1i
1j
#10020000
0j
#10030000
1h
0i
1j
#10040000
0j
#10050000
1i
1j
#10060000
0j
#10070000
1g
0h
0i
1j
#10080000
0j
#10090000
1i
1j
#10100000
0j
#10110000
1h
0i
1j
#10120000
0j
#10130000
1i
1j
