sim&tb/read_ctrl_ram_sim_result.vcd
$comment
Copyright (C) 2020  Intel Corporation. All rights reserved.
Your use of Intel Corporation's design tools, logic functions 
and other software and tools, and any partner logic 
functions, and any output files from any of the foregoing 
(including device programming or simulation files), and any 
associated documentation or information are expressly subject 
to the terms and conditions of the Intel Program License 
Subscription Agreement, the Intel Quartus Prime License Agreement,
the Intel FPGA IP License Agreement, or other applicable license
agreement, including, without limitation, that your use is for
the sole purpose of programming logic devices manufactured by
Intel and sold by Intel or its authorized distributors.  Please
refer to the applicable agreement for further details, at
https://fpgasoftware.intel.com/eula.
$end

$date 
  01/17/2021 21:27:08 
$end
$version 
 QUARTUS_VCD_EXPORT 1.0 
$end
$timescale
  1 ps
$end
$scope module inst14 $end
$var reg 1 ! add_wr[1] $end
$var reg 1 " add_wr[0] $end
$var reg 1 # ctrl_data[7] $end
$var reg 1 $ ctrl_data[6] $end
$var reg 1 % ctrl_data[5] $end
$var reg 1 & ctrl_data[4] $end
$var reg 1 ' ctrl_data[3] $end
$var reg 1 ( ctrl_data[2] $end
$var reg 1 ) ctrl_data[1] $end
$var reg 1 * ctrl_data[0] $end
$var reg 1 + x_point[7] $end
$var reg 1 , x_point[6] $end
$var reg 1 - x_point[5] $end
$var reg 1 . x_point[4] $end
$var reg 1 / x_point[3] $end
$var reg 1 0 x_point[2] $end
$var reg 1 1 x_point[1] $end
$var reg 1 2 x_point[0] $end
$var reg 1 3 y_point[7] $end
$var reg 1 4 y_point[6] $end
$var reg 1 5 y_point[5] $end
$var reg 1 6 y_point[4] $end
$var reg 1 7 y_point[3] $end
$var reg 1 8 y_point[2] $end
$var reg 1 9 y_point[1] $end
$var reg 1 : y_point[0] $end
$var reg 1 ; color_num[7] $end
$var reg 1 < color_num[6] $end
$var reg 1 = color_num[5] $end
$var reg 1 > color_num[4] $end
$var reg 1 ? color_num[3] $end
$var reg 1 @ color_num[2] $end
$var reg 1 A color_num[1] $end
$var reg 1 B color_num[0] $end
$upscope $end
$scope module inst17 $end
$var reg 1 C add_rd[1] $end
$var reg 1 D add_rd[0] $end
$var reg 1 E rd_data[7] $end
$var reg 1 F rd_data[6] $end
$var reg 1 G rd_data[5] $end
$var reg 1 H rd_data[4] $end
$var reg 1 I rd_data[3] $end
$var reg 1 J rd_data[2] $end
$var reg 1 K rd_data[1] $end
$var reg 1 L rd_data[0] $end
$var reg 1 M x_point[7] $end
$var reg 1 N x_point[6] $end
$var reg 1 O x_point[5] $end
$var reg 1 P x_point[4] $end
$var reg 1 Q x_point[3] $end
$var reg 1 R x_point[2] $end
$var reg 1 S x_point[1] $end
$var reg 1 T x_point[0] $end
$var reg 1 U y_point[7] $end
$var reg 1 V y_point[6] $end
$var reg 1 W y_point[5] $end
$var reg 1 X y_point[4] $end
$var reg 1 Y y_point[3] $end
$var reg 1 Z y_point[2] $end
$var reg 1 [ y_point[1] $end
$var reg 1 \ y_point[0] $end
$var reg 1 ] color_num[7] $end
$var reg 1 ^ color_num[6] $end
$var reg 1 _ color_num[5] $end
$var reg 1 ` color_num[4] $end
$var reg 1 a color_num[3] $end
$var reg 1 b color_num[2] $end
$var reg 1 c color_num[1] $end
$var reg 1 d color_num[0] $end
$upscope $end
$scope module inst12 $end
$var reg 1 e c1 $end
$upscope $end
$enddefinitions $end
#0
$dumpvars
X!
X"
X#
X$
X%
X&
X'
X(
X)
X*
X+
X,
X-
X.
X/
X0
X1
X2
X3
X4
X5
X6
X7
X8
X9
X:
X;
X<
X=
X>
X?
X@
XA
XB
XC
XD
XE
XF
XG
XH
XI
XJ
XK
XL
XM
XN
XO
XP
XQ
XR
XS
XT
XU
XV
XW
XX
XY
XZ
X[
X\
X]
X^
X_
X`
Xa
Xb
Xc
Xd
0e
$end
#2500
$comment Sample -512 (Start) $end
1!
0"
0#
0$
0%
0&
1'
1(
1)
0*
0+
1,
0-
0.
0/
00
11
02
03
04
05
06
07
18
19
1:
0;
0<
0=
0>
1?
1@
1A
0B
0C
0D
0E
0F
0G
0H
0I
1J
1K
1L
0M
1N
0O
0P
0Q
0R
1S
0T
0U
0V
0W
0X
0Y
1Z
1[
1\
0]
0^
0_
0`
1a
1b
1c
0d
1e
#5000
0e
#7500
0!
1$
0'
0(
1e
#10000
0e
#12500
1e
#15000
0e
#17500
1e
#20000
0e
#22500
1D
1I
0L
1e
#25000
0e
#27500
1"
0$
1(
1*
1e
#30000
0e
#32500
1e
#35000
0e
#37500
1e
#40000
0e
#42500
1e
#45000
0e
#47500
1!
0"
1'
0*
1C
0D
1F
0I
0J
1e
#50000
0e
#52500
1e
#55000
0e
#57500
1e
#60000
0e
#62500
1e
#65000
0e
#67500
0!
1$
0'
0(
1e
#70000
0e
#72500
0C
0F
1J
1L
1e
#75000
0e
#77500
1e
#80000
0e
#82500
1e
#85000
0e
#87500
1"
0$
1(
1*
1e
#90000
0e
#92500
1e
#95000
0e
#97500
1D
1I
0L
1e
#100000
0e
#102500
1e
#105000
0e
#107500
1!
0"
1'
0*
1e
#110000
0e
#112500
1e
#115000
0e
#117500
1e
#120000
0e
#122500
1C
0D
1F
0I
0J
1e
#125000
0e
#127500
0!
1$
0'
0(
1e
#130000
0e
#132500
1e
#135000
0e
#137500
1e
#140000
0e
#142500
1e
#145000
0e
#147500
1"
0$
1(
1*
0C
0F
1J
1L
1e
#150000
0e
#152500
1e
#155000
0e
#157500
1e
#160000
0e
#162500
1e
#165000
0e
#167500
1!
0"
1'
0*
1e
#170000
0e
#172500
1D
1I
0L
1e
#175000
0e
#177500
1e
#180000
0e
#182500
1e
#185000
0e
#187500
0!
1$
0'
0(
1e
#190000
0e
#192500
1e
#195000
0e
#197500
1C
0D
1F
0I
0J
1e
#200000
0e
#202500
1e
#205000
0e
#207500
1"
0$
1(
1*
1e
#210000
0e
#212500
1e
#215000
0e
#217500
1e
#220000
0e
#222500
0C
0F
1J
1L
1e
#225000
0e
#227500
1!
0"
1'
0*
1e
#230000
0e
#232500
1e
#235000
0e
#237500
1e
#240000
0e
#242500
1e
#245000
0e
#247500
0!
1$
0'
0(
1D
1I
0L
1e
#250000
0e
#252500
1e
#255000
0e
#257500
1e
#260000
0e
#262500
1e
#265000
0e
#267500
1"
0$
1(
1*
1e
#270000
0e
#272500
1C
0D
1F
0I
0J
1e
#275000
0e
#277500
1e
#280000
0e
#282500
1e
#285000
0e
#287500
1!
0"
1'
0*
1e
#290000
0e
#292500
1e
#295000
0e
#297500
0C
0F
1J
1L
1e
#300000
0e
#302500
1e
#305000
0e
#307500
0!
1$
0'
0(
1e
#310000
0e
#312500
1e
#315000
0e
#317500
1e
#320000
0e
#322500
1D
1I
0L
1e
#325000
0e
#327500
1"
0$
1(
1*
1e
#330000
0e
#332500
1e
#335000
0e
#337500
1e
#340000
0e
#342500
1e
#345000
0e
#347500
1!
0"
1'
0*
1C
0D
1F
0I
0J
1e
#350000
0e
#352500
1e
#355000
0e
#357500
1e
#360000
0e
#362500
1e
#365000
0e
#367500
0!
1$
0'
0(
1e
#370000
0e
#372500
0C
0F
1J
1L
1e
#375000
0e
#377500
1e
#380000
0e
#382500
1e
#385000
0e
#387500
1"
0$
1(
1*
1e
#390000
0e
#392500
1e
#395000
0e
#397500
1D
1I
0L
1e
#400000
0e
#402500
1e
#405000
0e
#407500
1!
0"
1'
0*
1e
#410000
0e
#412500
1e
#415000
0e
#417500
1e
#420000
0e
#422500
1C
0D
1F
0I
0J
1e
#425000
0e
#427500
0!
1$
0'
0(
1e
#430000
0e
#432500
1e
#435000
0e
#437500
1e
#440000
0e
#442500
1e
#445000
0e
#447500
1"
0$
1(
1*
0C
0F
1J
1L
1e
#450000
0e
#452500
1e
#455000
0e
#457500
1e
#460000
0e
#462500
1e
#465000
0e
#467500
1!
0"
1'
0*
1e
#470000
0e
#472500
1D
1I
0L
1e
#475000
0e
#477500
1e
#480000
0e
#482500
1e
#485000
0e
#487500
0!
1$
0'
0(
1e
#490000
0e
#492500
1e
#495000
0e
#497500
1C
0D
1F
0I
0J
1e
#500000
0e
#502500
1e
#505000
0e
#507500
1"
0$
1(
1*
1e
#510000
0e
#512500
1e
#515000
0e
#517500
1e
#520000
0e
#522500
0C
0F
1J
1L
1e
#525000
0e
#527500
1!
0"
1'
0*
1e
#530000
0e
#532500
1e
#535000
0e
#537500
1e
#540000
0e
#542500
1e
#545000
0e
#547500
0!
1$
0'
0(
1D
1I
0L
1e
#550000
0e
#552500
1e
#555000
0e
#557500
1e
#560000
0e
#562500
1e
#565000
0e
#567500
1"
0$
1(
1*
1e
#570000
0e
#572500
1C
0D
1F
0I
0J
1e
#575000
0e
#577500
1e
#580000
0e
#582500
1e
#585000
0e
#587500
1!
0"
1'
0*
1e
#590000
0e
#592500
1e
#595000
0e
#597500
0C
0F
1J
1L
1e
#600000
0e
#602500
1e
#605000
0e
#607500
0!
1$
0'
0(
1e
#610000
0e
#612500
1e
#615000
0e
#617500
1e
#620000
0e
#622500
1D
1I
0L
1e
#625000
0e
#627500
1"
0$
1(
1*
1e
#630000
0e
#632500
1e
#635000
0e
#637500
1e
#640000
0e
#642500
1e
#645000
0e
#647500
1!
0"
1'
0*
1C
0D
1F
0I
0J
1e
#650000
0e
#652500
1e
#655000
0e
#657500
1e
#660000
0e
#662500
1e
#665000
0e
#667500
0!
1$
0'
0(
1e
#670000
0e
#672500
0C
0F
1J
1L
1e
#675000
0e
#677500
1e
#680000
0e
#682500
1e
#685000
0e
#687500
1"
0$
1(
1*
1e
#690000
0e
#692500
1e
#695000
0e
#697500
1D
1I
0L
1e
#700000
0e
#702500
1e
#705000
0e
#707500
1!
0"
1'
0*
1e
#710000
0e
#712500
1e
#715000
0e
#717500
1e
#720000
0e
#722500
1C
0D
1F
0I
0J
1e
#725000
0e
#727500
0!
1$
0'
0(
1e
#730000
0e
#732500
1e
#735000
0e
#737500
1e
#740000
0e
#742500
1e
#745000
0e
#747500
1"
0$
1(
1*
0C
0F
1J
1L
1e
#750000
0e
#752500
1e
#755000
0e
#757500
1e
#760000
0e
#762500
1e
#765000
0e
#767500
1!
0"
1'
0*
1e
#770000
0e
#772500
1D
1I
0L
1e
#775000
0e
#777500
1e
#780000
0e
#782500
1e
#785000
0e
#787500
0!
1$
0'
0(
1e
#790000
0e
#792500
1e
#795000
0e
#797500
1C
0D
1F
0I
0J
1e
#800000
0e
#802500
1e
#805000
0e
#807500
1"
0$
1(
1*
1e
#810000
0e
#812500
1e
#815000
0e
#817500
1e
#820000
0e
#822500
0C
0F
1J
1L
1e
#825000
0e
#827500
1!
0"
1'
0*
1e
#830000
0e
#832500
1e
#835000
0e
#837500
1e
#840000
0e
#842500
1e
#845000
0e
#847500
0!
1$
0'
0(
1D
1I
0L
1e
#850000
0e
#852500
1e
#855000
0e
#857500
1e
#860000
0e
#862500
1e
#865000
0e
#867500
1"
0$
1(
1*
1e
#870000
0e
#872500
1C
0D
1F
0I
0J
1e
#875000
0e
#877500
1e
#880000
0e
#882500
1e
#885000
0e
#887500
1!
0"
1'
0*
1e
#890000
0e
#892500
1e
#895000
0e
#897500
0C
0F
1J
1L
1e
#900000
0e
#902500
1e
#905000
0e
#907500
0!
1$
0'
0(
1e
#910000
0e
#912500
1e
#915000
0e
#917500
1e
#920000
0e
#922500
1D
1I
0L
1e
#925000
0e
#927500
1"
0$
1(
1*
1e
#930000
0e
#932500
1e
#935000
0e
#937500
1e
#940000
0e
#942500
1e
#945000
0e
#947500
1!
0"
1'
0*
1C
0D
1F
0I
0J
1e
#950000
0e
#952500
1e
#955000
0e
#957500
1e
#960000
0e
#962500
1e
#965000
0e
#967500
0!
1$
0'
0(
1e
#970000
0e
#972500
0C
0F
1J
1L
1e
#975000
0e
#977500
1e
#980000
0e
#982500
1e
#985000
0e
#987500
1"
0$
1(
1*
1e
#990000
0e
#992500
1e
#995000
0e
#997500
1D
1I
0L
1e
#1000000
0e
#1002500
1e
#1005000
0e
#1007500
1!
0"
1'
0*
1e
#1010000
0e
#1012500
1e
#1015000
0e
#1017500
1e
#1020000
0e
#1022500
1C
0D
1F
0I
0J
1e
#1025000
0e
#1027500
0!
1$
0'
0(
1e
#1030000
0e
#1032500
1e
#1035000
0e
#1037500
1e
#1040000
0e
#1042500
1e
#1045000
0e
#1047500
1"
0$
1(
1*
0C
0F
1J
1L
1e
#1050000
0e
#1052500
1e
#1055000
0e
#1057500
1e
#1060000
0e
#1062500
1e
#1065000
0e
#1067500
1!
0"
1'
0*
1e
#1070000
0e
#1072500
1D
1I
0L
1e
#1075000
0e
#1077500
1e
#1080000
0e
#1082500
1e
#1085000
0e
#1087500
0!
1$
0'
0(
1e
#1090000
0e
#1092500
1e
#1095000
0e
#1097500
1C
0D
1F
0I
0J
1e
#1100000
0e
#1102500
1e
#1105000
0e
#1107500
1"
0$
1(
1*
1e
#1110000
0e
#1112500
1e
#1115000
0e
#1117500
1e
#1120000
0e
#1122500
0C
0F
1J
1L
1e
#1125000
0e
#1127500
1!
0"
1'
0*
1e
#1130000
0e
#1132500
1e
#1135000
0e
#1137500
1e
#1140000
0e
#1142500
1e
#1145000
0e
#1147500
0!
1$
0'
0(
1D
1I
0L
1e
#1150000
0e
#1152500
1e
#1155000
0e
#1157500
1e
#1160000
0e
#1162500
1e
#1165000
0e
#1167500
1"
0$
1(
1*
1e
#1170000
0e
#1172500
1C
0D
1F
0I
0J
1e
#1175000
0e
#1177500
1e
#1180000
0e
#1182500
1e
#1185000
0e
#1187500
1!
0"
1'
0*
1e
#1190000
0e
#1192500
1e
#1195000
0e
#1197500
0C
0F
1J
1L
1e
#1200000
0e
#1202500
1e
#1205000
0e
#1207500
0!
1$
0'
0(
1e
#1210000
0e
#1212500
1e
#1215000
0e
#1217500
1e
#1220000
0e
#1222500
1D
1I
0L
1e
#1225000
0e
#1227500
1"
0$
1(
1*
1e
#1230000
0e
#1232500
1e
#1235000
0e
#1237500
1e
#1240000
0e
#1242500
1e
#1245000
0e
#1247500
1!
0"
1'
0*
1C
0D
1F
0I
0J
1e
#1250000
0e
#1252500
1e
#1255000
0e
#1257500
1e
#1260000
0e
#1262500
1e
#1265000
0e
#1267500
0!
1$
0'
0(
1e
#1270000
0e
#1272500
0C
0F
1J
1L
1e
#1275000
0e
#1277500
1e
#1280000
0e
#1282500
1e
#1285000
0e
#1287500
1"
0$
1(
1*
1e
#1290000
0e
#1292500
1e
#1295000
0e
#1297500
1D
1I
0L
1e
#1300000
0e
#1302500
1e
#1305000
0e
#1307500
1!
0"
1'
0*
1e
#1310000
0e
#1312500
1e
#1315000
0e
#1317500
1e
#1320000
0e
#1322500
1C
0D
1F
0I
0J
1e
#1325000
0e
#1327500
0!
1$
0'
0(
1e
#1330000
0e
#1332500
1e
#1335000
0e
#1337500
1e
#1340000
0e
#1342500
1e
#1345000
0e
#1347500
1"
0$
1(
1*
0C
0F
1J
1L
1e
#1350000
0e
#1352500
1e
#1355000
0e
#1357500
1e
#1360000
0e
#1362500
1e
#1365000
0e
#1367500
1!
0"
1'
0*
1e
#1370000
0e
#1372500
1D
1I
0L
1e
#1375000
0e
#1377500
1e
#1380000
0e
#1382500
1e
#1385000
0e
#1387500
0!
1$
0'
0(
1e
#1390000
0e
#1392500
1e
#1395000
0e
#1397500
1C
0D
1F
0I
0J
1e
#1400000
0e
#1402500
1e
#1405000
0e
#1407500
1"
0$
1(
1*
1e
#1410000
0e
#1412500
1e
#1415000
0e
#1417500
1e
#1420000
0e
#1422500
0C
0F
1J
1L
1e
#1425000
0e
#1427500
1!
0"
1'
0*
1e
#1430000
0e
#1432500
1e
#1435000
0e
#1437500
1e
#1440000
0e
#1442500
1e
#1445000
0e
#1447500
0!
1$
0'
0(
1D
1I
0L
1e
#1450000
0e
#1452500
1e
#1455000
0e
#1457500
1e
#1460000
0e
#1462500
1e
#1465000
0e
#1467500
1"
0$
1(
1*
1e
#1470000
0e
#1472500
1C
0D
1F
0I
0J
1e
#1475000
0e
#1477500
1e
#1480000
0e
#1482500
1e
#1485000
0e
#1487500
1!
0"
1'
0*
1e
#1490000
0e
#1492500
1e
#1495000
0e
#1497500
0C
0F
1J
1L
1e
#1500000
0e
#1502500
1e
#1505000
0e
#1507500
0!
1$
0'
0(
1e
#1510000
0e
#1512500
1e
#1515000
0e
#1517500
1e
#1520000
0e
#1522500
1D
1I
0L
1e
#1525000
0e
#1527500
1"
0$
1(
1*
1e
#1530000
0e
#1532500
1e
#1535000
0e
#1537500
1e
#1540000
0e
#1542500
1e
#1545000
0e
#1547500
1!
0"
1'
0*
1C
0D
1F
0I
0J
1e
#1550000
0e
#1552500
1e
#1555000
0e
#1557500
1e
#1560000
0e
#1562500
1e
#1565000
0e
#1567500
0!
1$
0'
0(
1e
#1570000
0e
#1572500
0C
0F
1J
1L
1e
#1575000
0e
#1577500
1e
#1580000
0e
#1582500
1e
#1585000
0e
#1587500
1"
0$
1(
1*
1e
#1590000
0e
#1592500
1e
#1595000
0e
#1597500
1D
1I
0L
1e
#1600000
0e
#1602500
1e
#1605000
0e
#1607500
1!
0"
1'
0*
1e
#1610000
0e
#1612500
1e
#1615000
0e
#1617500
1e
#1620000
0e
#1622500
1C
0D
1F
0I
0J
1e
#1625000
0e
#1627500
0!
1$
0'
0(
1e
#1630000
0e
#1632500
1e
#1635000
0e
#1637500
1e
#1640000
0e
#1642500
1e
#1645000
0e
#1647500
1"
0$
1(
1*
0C
0F
1J
1L
1e
#1650000
0e
#1652500
1e
#1655000
0e
#1657500
1e
#1660000
0e
#1662500
1e
#1665000
0e
#1667500
1!
0"
1'
0*
1e
#1670000
0e
#1672500
1D
1I
0L
1e
#1675000
0e
#1677500
1e
#1680000
0e
#1682500
1e
#1685000
0e
#1687500
0!
1$
0'
0(
1e
#1690000
0e
#1692500
1e
#1695000
0e
#1697500
1C
0D
1F
0I
0J
1e
#1700000
0e
#1702500
1e
#1705000
0e
#1707500
1"
0$
1(
1*
1e
#1710000
0e
#1712500
1e
#1715000
0e
#1717500
1e
#1720000
0e
#1722500
0C
0F
1J
1L
1e
#1725000
0e
#1727500
1!
0"
1'
0*
1e
#1730000
0e
#1732500
1e
#1735000
0e
#1737500
1e
#1740000
0e
#1742500
1e
#1745000
0e
#1747500
0!
1$
0'
0(
1D
1I
0L
1e
#1750000
0e
#1752500
1e
#1755000
0e
#1757500
1e
#1760000
0e
#1762500
1e
#1765000
0e
#1767500
1"
0$
1(
1*
1e
#1770000
0e
#1772500
1C
0D
1F
0I
0J
1e
#1775000
0e
#1777500
1e
#1780000
0e
#1782500
1e
#1785000
0e
#1787500
1!
0"
1'
0*
1e
#1790000
0e
#1792500
1e
#1795000
0e
#1797500
0C
0F
1J
1L
1e
#1800000
0e
#1802500
1e
#1805000
0e
#1807500
0!
1$
0'
0(
1e
#1810000
0e
#1812500
1e
#1815000
0e
#1817500
1e
#1820000
0e
#1822500
1D
1I
0L
1e
#1825000
0e
#1827500
1"
0$
1(
1*
1e
#1830000
0e
#1832500
1e
#1835000
0e
#1837500
1e
#1840000
0e
#1842500
1e
#1845000
0e
#1847500
1!
0"
1'
0*
1C
0D
1F
0I
0J
1e
#1850000
0e
#1852500
1e
#1855000
0e
#1857500
1e
#1860000
0e
#1862500
1e
#1865000
0e
#1867500
0!
1$
0'
0(
1e
#1870000
0e
#1872500
0C
0F
1J
1L
1e
#1875000
0e
#1877500
1e
#1880000
0e
#1882500
1e
#1885000
0e
#1887500
1"
0$
1(
1*
1e
#1890000
0e
#1892500
1e
#1895000
0e
#1897500
1D
1I
0L
1e
#1900000
0e
#1902500
1e
#1905000
0e
#1907500
1!
0"
1'
0*
1e
#1910000
0e
#1912500
1e
#1915000
0e
#1917500
1e
#1920000
0e
#1922500
1C
0D
1F
0I
0J
1e
#1925000
0e
#1927500
0!
1$
0'
0(
1e
#1930000
0e
#1932500
1e
#1935000
0e
#1937500
1e
#1940000
0e
#1942500
1e
#1945000
0e
#1947500
1"
0$
1(
1*
0C
0F
1J
1L
1e
#1950000
0e
#1952500
1e
#1955000
0e
#1957500
1e
#1960000
0e
#1962500
1e
#1965000
0e
#1967500
1!
0"
1'
0*
1e
#1970000
0e
#1972500
1D
1I
0L
1e
#1975000
0e
#1977500
1e
#1980000
0e
#1982500
1e
#1985000
0e
#1987500
0!
1$
0'
0(
1e
#1990000
0e
#1992500
1e
#1995000
0e
#1997500
1C
0D
1F
0I
0J
1e
#2000000
0e
#2002500
1e
#2005000
0e
#2007500
1"
0$
1(
1*
1e
#2010000
0e
#2012500
1e
#2015000
0e
#2017500
1e
#2020000
0e
#2022500
0C
0F
1J
1L
1e
#2025000
0e
#2027500
1!
0"
1'
0*
1e
#2030000
0e
#2032500
1e
#2035000
0e
#2037500
1e
#2040000
0e
#2042500
1e
#2045000
0e
#2047500
0!
1$
0'
0(
1D
1I
0L
1e
#2050000
0e
#2052500
1e
#2055000
0e
#2057500
1e
#2060000
0e
#2062500
1e
#2065000
0e
#2067500
1"
0$
1(
1*
1e
#2070000
0e
#2072500
1C
0D
1F
0I
0J
1e
#2075000
0e
#2077500
1e
#2080000
0e
#2082500
1e
#2085000
0e
#2087500
1!
0"
1'
0*
1e
#2090000
0e
#2092500
1e
#2095000
0e
#2097500
0C
0F
1J
1L
1e
#2100000
0e
#2102500
1e
#2105000
0e
#2107500
0!
1$
0'
0(
1e
#2110000
0e
#2112500
1e
#2115000
0e
#2117500
1e
#2120000
0e
#2122500
1D
1I
0L
1e
#2125000
0e
#2127500
1"
0$
1(
1*
1e
#2130000
0e
#2132500
1e
#2135000
0e
#2137500
1e
#2140000
0e
#2142500
1e
#2145000
0e
#2147500
1!
0"
1'
0*
1C
0D
1F
0I
0J
1e
#2150000
0e
#2152500
1e
#2155000
0e
#2157500
1e
#2160000
0e
#2162500
1e
#2165000
0e
#2167500
0!
1$
0'
0(
1e
#2170000
0e
#2172500
0C
0F
1J
1L
1e
#2175000
0e
#2177500
1e
#2180000
0e
#2182500
1e
#2185000
0e
#2187500
1"
0$
1(
1*
1e
#2190000
0e
#2192500
1e
#2195000
0e
#2197500
1D
1I
0L
1e
#2200000
0e
#2202500
1e
#2205000
0e
#2207500
1!
0"
1'
0*
1e
#2210000
0e
#2212500
1e
#2215000
0e
#2217500
1e
#2220000
0e
#2222500
1C
0D
1F
0I
0J
1e
#2225000
0e
#2227500
0!
1$
0'
0(
1e
#2230000
0e
#2232500
1e
#2235000
0e
#2237500
1e
#2240000
0e
#2242500
1e
#2245000
0e
#2247500
1"
0$
1(
1*
0C
0F
1J
1L
1e
#2250000
0e
#2252500
1e
#2255000
0e
#2257500
1e
#2260000
0e
#2262500
1e
#2265000
0e
#2267500
1!
0"
1'
0*
1e
#2270000
0e
#2272500
1D
1I
0L
1e
#2275000
0e
#2277500
1e
#2280000
0e
#2282500
1e
#2285000
0e
#2287500
0!
1$
0'
0(
1e
#2290000
0e
#2292500
1e
#2295000
0e
#2297500
1C
0D
1F
0I
0J
1e
#2300000
0e
#2302500
1e
#2305000
0e
#2307500
1"
0$
1(
1*
1e
#2310000
0e
#2312500
1e
#2315000
0e
#2317500
1e
#2320000
0e
#2322500
0C
0F
1J
1L
1e
#2325000
0e
#2327500
1!
0"
1'
0*
1e
#2330000
0e
#2332500
1e
#2335000
0e
#2337500
1e
#2340000
0e
#2342500
1e
#2345000
0e
#2347500
0!
1$
0'
0(
1D
1I
0L
1e
#2350000
0e
#2352500
1e
#2355000
0e
#2357500
1e
#2360000
0e
#2362500
1e
#2365000
0e
#2367500
1"
0$
1(
1*
1e
#2370000
0e
#2372500
1C
0D
1F
0I
0J
1e
#2375000
0e
#2377500
1e
#2380000
0e
#2382500
1e
#2385000
0e
#2387500
1!
0"
1'
0*
1e
#2390000
0e
#2392500
1e
#2395000
0e
#2397500
0C
0F
1J
1L
1e
#2400000
0e
#2402500
1e
#2405000
0e
#2407500
0!
1$
0'
0(
1e
#2410000
0e
#2412500
1e
#2415000
0e
#2417500
1e
#2420000
0e
#2422500
1D
1I
0L
1e
#2425000
0e
#2427500
1"
0$
1(
1*
1e
#2430000
0e
#2432500
1e
#2435000
0e
#2437500
1e
#2440000
0e
#2442500
1e
#2445000
0e
#2447500
1!
0"
1'
0*
1C
0D
1F
0I
0J
1e
#2450000
0e
#2452500
1e
#2455000
0e
#2457500
1e
#2460000
0e
#2462500
1e
#2465000
0e
#2467500
0!
1$
0'
0(
1e
#2470000
0e
#2472500
0C
0F
1J
1L
1e
#2475000
0e
#2477500
1e
#2480000
0e
#2482500
1e
#2485000
0e
#2487500
1"
0$
1(
1*
1e
#2490000
0e
#2492500
1e
#2495000
0e
#2497500
1D
1I
0L
1e
#2500000
0e
#2502500
1e
#2505000
0e
#2507500
1!
0"
1'
0*
1e
#2510000
0e
#2512500
1e
#2515000
0e
#2517500
1e
#2520000
0e
#2522500
1C
0D
1F
0I
0J
1e
#2525000
0e
#2527500
0!
1$
0'
0(
1e
#2530000
0e
#2532500
1e
#2535000
0e
#2537500
1e
#2540000
0e
#2542500
1e
#2545000
0e
#2547500
1"
0$
1(
1*
0C
0F
1J
1L
1e
#2550000
0e
#2552500
1e
#2555000
0e
#2557500
1e
#2560000
0e
#2562500
$comment Sample 0 (Trigger) $end
1e
#2565000
0e
#2567500
1!
0"
1'
0*
1e
#2570000
0e
#2572500
1D
1I
0L
1e
#2575000
0e
#2577500
1e
#2580000
0e
#2582500
1e
#2585000
0e
#2587500
0!
1$
0'
0(
1e
#2590000
0e
#2592500
1e
#2595000
0e
#2597500
1C
0D
1F
0I
0J
1e
#2600000
0e
#2602500
1e
#2605000
0e
#2607500
1"
0$
1(
1*
1e
#2610000
0e
#2612500
1e
#2615000
0e
#2617500
1e
#2620000
0e
#2622500
0C
0F
1J
1L
1e
#2625000
0e
#2627500
1!
0"
1'
0*
1e
#2630000
0e
#2632500
1e
#2635000
0e
#2637500
1e
#2640000
0e
#2642500
1e
#2645000
0e
#2647500
0!
1$
0'
0(
1D
1I
0L
1e
#2650000
0e
#2652500
1e
#2655000
0e
#2657500
1e
#2660000
0e
#2662500
1e
#2665000
0e
#2667500
1"
0$
1(
1*
1e
#2670000
0e
#2672500
1C
0D
1F
0I
0J
1e
#2675000
0e
#2677500
1e
#2680000
0e
#2682500
1e
#2685000
0e
#2687500
1!
0"
1'
0*
1e
#2690000
0e
#2692500
1e
#2695000
0e
#2697500
0C
0F
1J
1L
1e
#2700000
0e
#2702500
1e
#2705000
0e
#2707500
0!
1$
0'
0(
1e
#2710000
0e
#2712500
1e
#2715000
0e
#2717500
1e
#2720000
0e
#2722500
1D
1I
0L
1e
#2725000
0e
#2727500
1"
0$
1(
1*
1e
#2730000
0e
#2732500
1e
#2735000
0e
#2737500
1e
#2740000
0e
#2742500
1e
#2745000
0e
#2747500
1!
0"
1'
0*
1C
0D
1F
0I
0J
1e
#2750000
0e
#2752500
1e
#2755000
0e
#2757500
1e
#2760000
0e
#2762500
1e
#2765000
0e
#2767500
0!
1$
0'
0(
1e
#2770000
0e
#2772500
0C
0F
1J
1L
1e
#2775000
0e
#2777500
1e
#2780000
0e
#2782500
1e
#2785000
0e
#2787500
1"
0$
1(
1*
1e
#2790000
0e
#2792500
1e
#2795000
0e
#2797500
1D
1I
0L
1e
#2800000
0e
#2802500
1e
#2805000
0e
#2807500
1!
0"
1'
0*
1e
#2810000
0e
#2812500
1e
#2815000
0e
#2817500
1e
#2820000
0e
#2822500
1C
0D
1F
0I
0J
1e
#2825000
0e
#2827500
0!
1$
0'
0(
1e
#2830000
0e
#2832500
1e
#2835000
0e
#2837500
1e
#2840000
0e
#2842500
1e
#2845000
0e
#2847500
1"
0$
1(
1*
0C
0F
1J
1L
1e
#2850000
0e
#2852500
1e
#2855000
0e
#2857500
1e
#2860000
0e
#2862500
1e
#2865000
0e
#2867500
1!
0"
1'
0*
1e
#2870000
0e
#2872500
1D
1I
0L
1e
#2875000
0e
#2877500
1e
#2880000
0e
#2882500
1e
#2885000
0e
#2887500
0!
1$
0'
0(
1e
#2890000
0e
#2892500
1e
#2895000
0e
#2897500
1C
0D
1F
0I
0J
1e
#2900000
0e
#2902500
1e
#2905000
0e
#2907500
1"
0$
1(
1*
1e
#2910000
0e
#2912500
1e
#2915000
0e
#2917500
1e
#2920000
0e
#2922500
0C
0F
1J
1L
1e
#2925000
0e
#2927500
1!
0"
1'
0*
1e
#2930000
0e
#2932500
1e
#2935000
0e
#2937500
1e
#2940000
0e
#2942500
1e
#2945000
0e
#2947500
0!
1$
0'
0(
1D
1I
0L
1e
#2950000
0e
#2952500
1e
#2955000
0e
#2957500
1e
#2960000
0e
#2962500
1e
#2965000
0e
#2967500
1"
0$
1(
1*
1e
#2970000
0e
#2972500
1C
0D
1F
0I
0J
1e
#2975000
0e
#2977500
1e
#2980000
0e
#2982500
1e
#2985000
0e
#2987500
1!
0"
1'
0*
1e
#2990000
0e
#2992500
1e
#2995000
0e
#2997500
0C
0F
1J
1L
1e
#3000000
0e
#3002500
1e
#3005000
0e
#3007500
0!
1$
0'
0(
1e
#3010000
0e
#3012500
1e
#3015000
0e
#3017500
1e
#3020000
0e
#3022500
1D
1I
0L
1e
#3025000
0e
#3027500
1"
0$
1(
1*
1e
#3030000
0e
#3032500
1e
#3035000
0e
#3037500
1e
#3040000
0e
#3042500
1e
#3045000
0e
#3047500
1!
0"
1'
0*
1C
0D
1F
0I
0J
1e
#3050000
0e
#3052500
1e
#3055000
0e
#3057500
1e
#3060000
0e
#3062500
1e
#3065000
0e
#3067500
0!
1$
0'
0(
1e
#3070000
0e
#3072500
0C
0F
1J
1L
1e
#3075000
0e
#3077500
1e
#3080000
0e
#3082500
1e
#3085000
0e
#3087500
1"
0$
1(
1*
1e
#3090000
0e
#3092500
1e
#3095000
0e
#3097500
1D
1I
0L
1e
#3100000
0e
